Visualisation and analysis of probability distributions of variables defined on cyclic temporal granularities
…
```
#> The chosen granularities are harmonies 
#>  
#> Recommended plots are: quantile 
#>  
#> Number of observations are homogenous across facets 
#>  
#> Number of observations are homogenous within facets 
#>  
#> Cross tabulation of granularities : 
#>  
#> # A tibble: 24 x 13
#>   hour_day   Jan   Feb   Mar   Apr   May   Jun   Jul
#>   <fct>    <dbl> <dbl> <dbl> <dbl> <dbl> <dbl> <dbl>
#> 1 0         1151  1095   730   660   682  1008  1054
#> 2 1         1154  1094   730   660   682  1008  1054
#> 3 2         1152  1094   730   660   682  1008  1054
#> 4 3         1150  1094   730   660   682  1008  1054
#> # … with 20 more rows, and 5 more variables:
#> #   Aug <dbl>, Sep <dbl>, Oct <dbl>, Nov <dbl>,
#> #   Dec <dbl>
```
…
